{
    "name": "Player_Control_Scheme",
    "maps": [
        {
            "name": "Player",
            "id": "a86e5d4a-0726-4e47-9433-2c6c651e80fe",
            "actions": [
                {
                    "name": " Horizontal Movement",
                    "type": "Button",
                    "id": "d2544c82-64a3-4eac-9311-621d6a2c86a7",
                    "expectedControlType": "Button",
                    "processors": "",
                    "interactions": ""
                },
                {
                    "name": "Dash",
                    "type": "Button",
                    "id": "7b6af74d-db2c-4cbf-aebf-365d9530abfc",
                    "expectedControlType": "Button",
                    "processors": "",
                    "interactions": ""
                },
                {
                    "name": "Attack",
                    "type": "Button",
                    "id": "e449229d-79d2-4736-a7cf-bc35d880555f",
                    "expectedControlType": "Button",
                    "processors": "",
                    "interactions": ""
                },
                {
                    "name": "Jump",
                    "type": "Button",
                    "id": "3d5541e3-e349-4027-8db0-668cd1261ea3",
                    "expectedControlType": "Button",
                    "processors": "",
                    "interactions": ""
                }
            ],
            "bindings": [
                {
                    "name": "1D Axis - Keyboard",
                    "id": "89883bbc-5e67-48fc-990f-bfd83bd3e87a",
                    "path": "1DAxis",
                    "interactions": "",
                    "processors": "",
                    "groups": "",
                    "action": " Horizontal Movement",
                    "isComposite": true,
                    "isPartOfComposite": false
                },
                {
                    "name": "negative",
                    "id": "e8801199-ce0b-41e0-817c-98c5850258c3",
                    "path": "<Keyboard>/a",
                    "interactions": "",
                    "processors": "",
                    "groups": "",
                    "action": " Horizontal Movement",
                    "isComposite": false,
                    "isPartOfComposite": true
                },
                {
                    "name": "positive",
                    "id": "c111932f-7689-495b-879b-85baad87a1a0",
                    "path": "<Keyboard>/d",
                    "interactions": "",
                    "processors": "",
                    "groups": "",
                    "action": " Horizontal Movement",
                    "isComposite": false,
                    "isPartOfComposite": true
                },
                {
                    "name": "1D Axis - GamePad",
                    "id": "44ddd51d-6aae-42b9-9e78-671d3d22e914",
                    "path": "1DAxis",
                    "interactions": "",
                    "processors": "",
                    "groups": "",
                    "action": " Horizontal Movement",
                    "isComposite": true,
                    "isPartOfComposite": false
                },
                {
                    "name": "negative",
                    "id": "1ada8a4e-0b1a-4374-bfa3-f79137f0a9eb",
                    "path": "<Gamepad>/dpad/left",
                    "interactions": "",
                    "processors": "",
                    "groups": "",
                    "action": " Horizontal Movement",
                    "isComposite": false,
                    "isPartOfComposite": true
                },
                {
                    "name": "positive",
                    "id": "8e91dc64-330e-4ecf-bbf3-f29b8755703f",
                    "path": "<Gamepad>/dpad/right",
                    "interactions": "",
                    "processors": "",
                    "groups": "",
                    "action": " Horizontal Movement",
                    "isComposite": false,
                    "isPartOfComposite": true
                },
                {
                    "name": "",
                    "id": "a32252b7-e232-44d7-ad38-ca9c3275e042",
                    "path": "<Keyboard>/shift",
                    "interactions": "",
                    "processors": "",
                    "groups": "",
                    "action": "Dash",
                    "isComposite": false,
                    "isPartOfComposite": false
                },
                {
                    "name": "",
                    "id": "cd2c01e1-bd2d-4e92-8c59-24784917a1b0",
                    "path": "<Gamepad>/buttonEast",
                    "interactions": "",
                    "processors": "",
                    "groups": "",
                    "action": "Dash",
                    "isComposite": false,
                    "isPartOfComposite": false
                },
                {
                    "name": "",
                    "id": "55b44e73-3732-474d-b470-c06bf4e01334",
                    "path": "<Mouse>/leftButton",
                    "interactions": "",
                    "processors": "",
                    "groups": "",
                    "action": "Attack",
                    "isComposite": false,
                    "isPartOfComposite": false
                },
                {
                    "name": "",
                    "id": "d0c6f3ff-2094-4465-abe5-6a20e65c4b5c",
                    "path": "<Gamepad>/buttonWest",
                    "interactions": "",
                    "processors": "",
                    "groups": "",
                    "action": "Attack",
                    "isComposite": false,
                    "isPartOfComposite": false
                },
                {
                    "name": "",
                    "id": "1801df99-a85c-4670-9a7f-a98495ce634b",
                    "path": "<Keyboard>/w",
                    "interactions": "",
                    "processors": "",
                    "groups": "",
                    "action": "Jump",
                    "isComposite": false,
                    "isPartOfComposite": false
                },
                {
                    "name": "",
                    "id": "9132b3a8-865b-4b58-82f3-cee6e17d4529",
                    "path": "<Gamepad>/buttonSouth",
                    "interactions": "",
                    "processors": "",
                    "groups": "",
                    "action": "Jump",
                    "isComposite": false,
                    "isPartOfComposite": false
                }
            ]
        }
    ],
    "controlSchemes": []
}